Mary Kreklow - US States
…
state_population<-state_pop|>
  mutate(state=str_to_lower(state))|>
  select(state, pop2024)

state_population

# A tibble: 50 × 2
   state           pop2024
   <chr>             <dbl>
 1 california     38889770
 2 texas          30976754
 3 florida        22975931
 4 new york       19469232
 5 pennsylvania   12951275
 6 illinois       12516863
 7 ohio           11812173
 8 georgia        11145304
 9 north carolina 10975017
10 michigan       10041241
# ℹ 40 more rows
…
